275995 7074
244180 803822
279115 789277
350223 494909
69462 159045
705615 37065
652101 717286
954305 174654
567780 377267
875683 217223
888928 349134
293943 430810
478016 268520
876773 202830
361369 305394
271061 907781
765061 929685
388347 317171
277703 724467
955117 569670
591817 608588
662224 166370
984377 351109
20905 863909
656873 286973
733238 447048
789385 986224
143308 152901
754870 960173
829693 924756
240794 482029
206426 856327
61438 194547
641348 2625
125626 575638
449964 225734
462786 50445
443139 908978
997063 392351
926364 975704
311721 127719
712657 424547
356381 709859
399442 234687
725980 944404
75038 848116
948252 93414
789028 155699
393689 804281
284120 448007
565681 835058
228060 175384
467493 594643
283409 459951
972852 29475
105191 188474
649718 635771
479887 593373
16959 744431
684095 29898
90962 813389
460325 843993
17744 519566
621809 169464
520232 544972
200970 416130
741896 210711
485195 42745
327312 499551
511876 97185
312726 771273
122394 850031
826975 754108
323285 959385
109414 938717
419071 284055
922955 600309
646359 787633
559891 778358
327529 802046
111064 948716
622851 93826
345863 72867
938950 77667
286873 379897
10218 721270
603914 890694
959096 902155
178182 937333
525485 770010
977135 67345
754572 611835
706888 281854
320758 655702
206516 259605
958769 857798
227231 345069
206706 269433
964620 982361
247708 231607
806877 993652
480754 377094
896966 636883
578271 220893
255821 778887
912690 163215
783274 73701
682812 108645
957181 870564
738454 676547
937905 290714
910521 327874
567828 1092
899309 902253
162951 680923
395735 938355
886276 320707
198890 561240
369149 113783
265994 313641
988929 24639
152737 809573
47040 116831
902808 462469
460572 34432
350797 963917
265051 26213
538540 83279
159324 439022
827548 240103
440807 980483
904280 176759
656853 616632
343355 673379
453577 257458
514113 941136
606059 690271
679461 334751
646992 180108
856533 24246
433174 396322
366831 524211
414568 360994
771107 773401
946921 100073
520308 117008
606948 160218
290636 433764
448156 228389
875591 111678
784157 590721
635097 173556
746833 261566
48247 85831
844305 549266
518691 401694
902415 116867
827345 206108
374283 83620
603047 341511
842201 178104
727423 141898
158182 954341
372682 215844
871167 964775
660825 897445
112609 73543
669988 644482
385989 143337
962978 250591
503362 684138
919669 777915
648585 2549
798952 424627
500484 785147
267904 578268
343883 919204
906317 453307
365275 107531
317251 297307
486927 596017
103950 637242
601938 703472
750406 941834
395051 192974
698614 973051
980865 579685
883551 212596
509507 464786
131372 664013
767884 109692
652705 913803
715003 137694
312337 129803
110666 300267
79453 155242
37753 326021
329602 158642
959056 310258
237196 826690
131687 355348
887928 256277
105208 865677
34169 779519
6242 774858
843361 489003
616737 487144
405844 839966
925380 719126
172798 314189
564487 948762
688065 950357
421672 554277
872907 446402
256887 859871
959296 262953
84735 792176
918914 589120
988997 72703
533342 307201
375039 995235
234404 549818
337490 916019
289317 569565
99799 837782
732154 962401
599579 461734
829105 450937
250352 237833
119598 905520
765035 296679
867781 264041
863745 991729
392284 253671
957207 397550
9312 91697
402009 829028
239675 52364
753646 452673
284498 517382
916937 594151
944617 265980
831479 799162
182725 92905
756336 795807
412726 680822
553701 98819
167965 15113
431018 178764
420451 93472
265928 24795
282026 655766
232784 28623
606987 366304
350822 83893
