282625 469079
72013 664655
65375 75626
528260 400994
114524 621861
481458 603179
569025 38902
151525 390743
976046 44511
126535 584711
228943 599772
11388 987393
180814 299391
624724 460019
912431 751122
475191 364727
955175 755541
975341 770473
17635 269198
728396 42971
418567 658857
18538 395123
138484 208262
29020 562392
506920 886383
704183 561303
256388 219311
497248 216125
26178 161856
69919 242767
49047 913343
232171 283919
779013 341104
441962 438364
891661 227815
710689 297646
599475 317548
228275 644288
48590 69264
978700 595839
395408 313122
810864 304634
987861 736545
724922 779889
184324 957052
160810 839443
186043 328208
26296 774131
815610 498464
413354 357570
569912 946016
131360 614124
149860 25950
442018 790819
985778 925298
412361 123171
706488 262158
163298 62649
405218 702903
809434 461768
465969 253763
677850 17153
825430 312195
788426 837374
302592 803087
459174 491655
294924 966713
652979 574584
905595 542229
673817 468508
730782 201314
860608 870352
824379 739045
379257 597904
853207 568041
252527 60283
957493 354934
659433 372825
729023 130313
714039 419758
280940 536363
603812 193180
313821 798419
622934 697654
612094 752814
53789 810787
2425 708084
200333 741374
650585 919243
608348 655840
182995 844347
481630 282951
616417 397752
693802 902200
440648 515176
697104 796467
152548 114049
563319 336487
957591 955589
953392 164752
483034 876934
332967 644719
138296 491363
822122 924972
80299 173298
147656 611467
365085 710352
72679 197311
63394 478540
28950 375981
190350 911728
218786 933608
718434 517768
73738 831007
955666 801263
173959 295409
776632 846971
378990 717426
48949 642077
640909 549810
942144 909441
666421 358552
264920 441457
484708 383717
627243 852918
64961 704225
860171 982381
850675 853040
673536 853929
840772 673882
94153 781596
768477 576252
317505 791602
839771 506512
926295 137435
6097 588572
972268 369180
152128 92820
486846 488468
560556 791000
903340 447971
158909 200041
232033 593235
250763 659788
986088 141841
888687 431984
943738 707460
366754 130112
915855 324082
328014 842952
882687 467531
852622 180642
236550 291325
875217 932847
368993 90636
268419 771247
846417 274302
641310 705653
475376 248654
335408 104297
727537 403904
605000 643701
961933 92969
993210 476543
381963 379639
322394 786166
424556 101022
379759 949725
531158 372660
375375 11294
438064 612429
43984 944314
71090 511827
750682 4424
234682 381334
45080 574040
981856 971443
786746 948330
482503 716489
550056 232463
219070 754128
719953 269980
371435 841721
413370 956905
13023 503330
850517 971524
933993 146452
509180 516222
477510 874447
711655 236827
557133 575099
628899 468832
250383 614248
594592 548866
615660 267812
387386 433049
750106 835450
413995 922789
46108 863194
265172 534004
920980 541516
568211 690248
658331 4436
84035 915731
192300 699646
356827 190374
987395 72693
385483 504466
759590 157627
966200 121791
826777 770696
878591 223163
569389 280662
372576 42318
883130 584124
156892 742157
497325 755348
60495 908968
463399 826339
668992 870157
919696 168207
518023 774759
852051 880629
721685 423466
588822 70056
852633 966438
985588 807914
947580 12097
88110 932570
957257 240773
253371 748294
203765 534930
427600 65541
717983 963845
387387 9647
416909 216212
933899 460390
180464 564056
140163 70693
464610 743384
354303 398132
558764 139775
459908 991666
767703 383561
400878 866250
713611 764477
2976 329413
400726 893807
539110 618618
352215 320248
683518 894943
807004 48832
789161 381160
998906 381841
474290 670566
743162 793322
265410 288598
8652 691444
29817 480817
40497 636776
922267 650223
20307 373648
17826 562536
947323 102874
555723 915837
602525 372293
931116 779499
687523 688040
452788 570681
683270 384857
698090 134039
847711 369529
141620 359706
591443 456487
878469 633651
