507226 317490
547753 713230
375637 839783
765690 192412
747726 783778
214122 707129
409297 720523
481158 231765
747697 586767
404042 610676
378428 846553
34718 169514
257197 114069
75576 414077
367121 433055
399895 874346
750544 463999
103928 126180
820134 869617
834943 84211
653395 565417
791340 579043
285939 788849
810807 549987
891968 214849
677015 270395
61401 711732
956260 834949
342152 31835
249025 709273
464889 165271
99970 215432
145621 203897
857963 965754
589866 209258
49965 759612
774674 357656
338654 60612
146504 149460
610598 554823
364308 287612
341570 942060
515696 297829
293360 857847
846016 58736
567119 310904
740358 183441
42688 885979
387337 417002
851732 493554
626259 418048
253165 400932
775703 591818
977895 438559
257630 104845
509733 138289
908808 851302
80349 424503
149131 890060
282350 995146
948796 365820
822401 689153
549260 381440
575131 452949
314794 943215
462854 941052
361262 716019
858336 653317
824188 352582
608227 81817
457426 117959
220106 366234
969261 816806
307088 634743
706865 589437
146240 172012
471609 968640
377517 537220
866432 468999
506520 181225
412213 969374
638628 289827
201744 13315
943143 542283
882249 551369
624100 856026
185679 360557
222259 154939
177362 45699
306033 400578
151487 452272
88942 623095
937264 466458
676667 803695
935456 699538
501271 347669
668911 656250
153847 387006
185917 613341
929289 68165
681061 69740
924190 866739
430296 662801
538030 124009
708499 844062
524586 859985
296334 613527
999432 233597
596336 676098
553643 531792
375635 54913
395812 560898
227514 549658
464255 413430
162998 393543
481594 360410
979634 922136
227148 409929
584936 765177
50289 809786
125591 574875
669770 421924
704753 669201
171872 301089
861650 725514
349232 753637
296778 745043
830886 524291
811052 295140
454073 974049
205035 935666
850810 184668
374153 77957
594597 959088
359486 644885
768873 485076
736111 954995
423351 957216
140547 595222
774656 518549
837087 123887
272185 133864
868929 103070
174506 196332
398209 628578
686732 603243
80596 537541
304263 971100
615497 898859
930188 491334
60095 215412
976409 312558
686758 916111
269773 827305
27684 560780
345853 864770
684666 618037
514985 69946
237458 205843
266277 152018
350772 953008
271613 431367
490548 575875
918819 622396
991085 849006
630082 51179
580769 122842
880088 267527
38953 666212
94831 66636
226991 957035
931406 911656
91423 962742
497953 328880
168584 280581
480897 519356
233588 752509
467074 240487
844735 385892
379235 835819
751249 9316
403350 332018
132157 283437
115896 171109
466001 727078
754097 692991
684112 201854
120999 775534
164595 135303
104413 849531
415884 101661
885238 165823
370522 352311
406310 215256
254555 301896
567427 5803
827563 487128
854172 959719
770564 970067
647180 752916
213496 917628
445907 897607
119481 83257
189492 800427
218559 810256
649957 634442
428269 51546
800265 798790
403857 722926
530397 658411
541173 614175
180565 368735
101302 34737
328453 388218
521155 491984
141133 734651
409611 103391
148609 45443
186647 854453
845870 405206
664708 12178
555999 92976
63724 356263
408117 983932
595540 938514
158694 136712
552688 339258
505446 653990
373994 350251
558559 411501
358586 699691
662503 768197
803082 327463
